…
Attempts to find patterns in Kegg Orthology (KO) were fruitless as all
annotated proteins have unique values.

    ## # A tibble: 25 x 3
    ##    Kegg              proteins                          count
    ##    <chr>             <chr>                             <int>
    ##  1 <NA>              Allene oxide synthase-lipoxygena…    59
    ##  2 KEGG:cfa:403812`… Histamine H2 receptor (H2R) (HH2…     2
    ##  3 KEGG:hsa:83872`K… Hemicentin-1 (Fibulin-6) (FIBL-6…     2
    ##  4 KEGG:aag:COX3`KO… Cytochrome c oxidase subunit 3 (…     1
    ##  5 KEGG:ame:406088   Vitellogenin                          1
    ##  6 KEGG:bsu:BSU3007… Glycine betaine transporter OpuD      1
    ##  7 KEGG:bta:537692   Metallo-beta-lactamase domain-co…     1
    ##  8 KEGG:dre:393420   UPF0696 protein C11orf68 homolog      1
    ##  9 KEGG:dse:CYTB`KO… Cytochrome b (Complex III subuni…     1
    ## 10 KEGG:dya:COX1`KO… Cytochrome c oxidase subunit 1 (…     1
    ## # … with 15 more rows
